{
  "FeatureToggles": {
    "EnableDeveloperExceptions": true
  },
  "ConnectionStrings": {
    "ContactInformationContext": "Server=mi3-wsq4.a2hosting.com;Database=contacts;user id=thusvang;password=3?jM86ri;Trusted_Connection=True;Integrated Security=false",
    "SpecialsDataContext": "Server=mi3-wsq4.a2hosting.com;Database=specials;user id=thusvang;password=3?jM86ri;Trusted_Connection=True;Integrated Security=false"
  }
}